BSG Mark,Part Reference,Part Name,Count Per Board,Inventory,Unit Price,Part To Send,Value To Send,Enough,Need Repack
P1,C1 C22 C23 C32 C33 C43 C44 C46 C47 C48 C50 C56 C61 C68 C70 C73 C77 C86 C87 C94 C95 C100 C103,CAP0805_4.7U,23,500,$0.05,500,$27.00,TRUE,FALSE
P2,C10 C15 C17 C19 C37 C80 C241 C261 C271 C278,CAP0402_0.1U,10,250,$0.01,250,$2.50,TRUE,FALSE
P3,C12 C82,CAP7343_100U,2,200,$0.97,20,$19.44,TRUE,TRUE
P4,C18 C20 C21 C24,CAP0603_0.47U@16V,4,100,$0.03,100,$3.20,TRUE,FALSE
P5,C2 C3 C83 C84 C102 C108 C109 C110,CAP3216E_22U,8,104,$0.57,56,$32.03,TRUE,TRUE
P6,C27 C260,CAP3216E_10U,2,100,$0.50,100,$50.40,TRUE,FALSE
P7,C28 C29 C30 C31 C38 C55 C60 C67 C72 C76 C85 C88 C93 C96 C99 C115,CAP4532_100U,16,250,$0.71,120,$85.68,TRUE,TRUE
P8,C4 C25 C26 C35 C36 C39 C40 C41 C45 C52 C53 C54 C57 C58 C59 C62 C66 C69 C71 C74 C75 C78 C79 C81 C89 C90 C91 C92 C97 C98 C101 C104 C105 C106 C107,CAP0402_0.47U,35,1000,$0.02,1000,$20.00,TRUE,FALSE
P9,C5 C6,CAP3216E_33U,2,100,$0.84,100,$83.60,TRUE,FALSE
P10,C7 C13 C14 C16 C42 C51 C65 C164,CAP0805_10U,8,250,$0.07,250,$18.50,TRUE,FALSE
P11,C8 C11,CAP10_330U,2,100,$1.39,14,$19.39,TRUE,TRUE
P12,C9 C64,CAP7343_330U,2,100,$0.29,20,$5.78,TRUE,TRUE
P13,D1 D3 D4 D11 D12 D13 D15 D16 D17,LED0603_RED,9,250,$0.22,70,$15.05,TRUE,TRUE
P14,J1,ASP-134488-01,1,24,N/A,7,#VALUE!,TRUE,TRUE
P15,J16 J17 J18 J20 J21 J22 J23 J24,SMA,8,104,$2.05,56,$114.91,TRUE,TRUE
P16,J19,CONN4_POWER,1,25,$2.50,7,$17.50,TRUE,TRUE
P17,J2 J3,JUMP3_2MM,2,60,$0.15,14,$2.11,TRUE,TRUE
P18,J25,CONN9_DB9,1,20,$3.15,7,$22.08,TRUE,TRUE
P19,J26,CONN_4P_1720650004,1,25,$0.82,7,$5.71,TRUE,TRUE
P20,J28,CONN2X8_2MM,1,25,$1.33,7,$9.28,TRUE,TRUE
P21,J29,FAN3P_22-11-2032,1,25,$0.57,7,$3.96,TRUE,TRUE
P22,J4 J5 J10 J12 J14 J15,JUMPER2,6,120,$0.12,120,$14.04,TRUE,FALSE
P23,J6,XC-JTAG14,1,20,$1.17,7,$8.19,TRUE,TRUE
P24,L1 L2 L3,BLM41PG600SN1,3,100,$0.17,100,$16.70,TRUE,FALSE
P25,R1 R132,RES0402_5.6K,2,1000,$0.00,1000,$3.50,TRUE,FALSE
P26,R12 R242,RES0402_10,2,1000,$0.00,1000,$3.50,TRUE,FALSE
P27,R14 R106 R108 R114 R115,RES0402_100,5,1000,$0.00,1000,$3.50,TRUE,FALSE
P28,R15 R27 R28 R79 R104 R107 R109 R110 R111 R116 R117 R118 R119 R128 R129 R273 R274 R275 R276 R277 R278 R280,RES0402_4.7K,22,1000,$0.00,1000,$3.50,TRUE,FALSE
P29,R16 R17 R18 R19 R30 R31 R32 R33 R34 R35 R36 R37 R38 R39 R40 R41 R42 R43 R44 R45 R46 R49 R50 R51 R52 R53 R54 R55 R56 R57 R58 R59 R60 R61 R62 R63 R64 R67 R68 R69 R70 R71 R72 R73 R74 R75 R80 R81 R82 R85 R86 R88 R89 R90 R91 R92 R93 R94 R95 R96 R97 R98 R99 R100 R101 R102 R127 R140,RSA4_100,68,5000,$0.02,5000,$120.00,TRUE,FALSE
P30,R2 R4 R8 R22 R26 R77 R103 R112 R133 R279,RES0402_1K,10,1000,$0.00,1000,$3.50,TRUE,FALSE
P31,R23,RES0402_33K,1,1000,$0.00,1000,$3.50,TRUE,FALSE
P32,R25,RES0402_1.4K,1,1000,$0.00,1000,$3.50,TRUE,FALSE
P33,R29 R161,RES2512_60mOhm,2,50,$0.64,14,$9.02,TRUE,TRUE
P34,R3,RES0402_3.9K,1,1000,$0.00,1000,$3.50,TRUE,FALSE
P35,R5,RES0402_1.02K,1,1000,$0.00,1000,$3.50,TRUE,FALSE
P36,R6,RES0402_1M,1,1000,$0.00,1000,$3.50,TRUE,FALSE
P37,R7 R13 R243,RES0402_2.4K,3,1000,$0.00,1000,$3.50,TRUE,FALSE
P38,R76,RES0402_100K,1,1000,$0.00,1000,$3.50,TRUE,FALSE
P39,R78,RES0402_10K,1,1000,$0.00,1000,$3.50,TRUE,FALSE
P40,R83 R84 R105 R113 R134 R135 R136 R137 R138 R139,RES0402_330,10,1000,$0.00,1000,$3.50,TRUE,FALSE
P41,S1,RESET,1,50,N/A,7,#VALUE!,TRUE,TRUE
P42,U1,74LCX244MSA,1,25,$0.36,7,$2.53,TRUE,TRUE
P43,U10,LTC2990CMS,1,25,$3.21,7,$22.47,TRUE,TRUE
P44,U11 U13,M25P128VME6,2,40,$2.01,14,$28.18,TRUE,TRUE
P45,U15,PTH12000WAH,1,20,$9.08,7,$63.57,TRUE,TRUE
P46,U2,XC6SLX150-FGG484,1,3,$175.00,3,$525.00,FALSE,FALSE
P47,U23,TPS3808G01DBVR,1,25,$1.42,7,$9.95,TRUE,TRUE
P48,U3 U14 U16 U18,MAX8556ETE,4,52,$5.30,28,$148.46,TRUE,TRUE
P49,U37,MAX3222EEUP,1,25,$4.15,7,$29.05,TRUE,TRUE
P50,U4,XC6SLX150-FGG676,1,7,$201.25,3,$603.75,FALSE,TRUE
P51,U5,PTH08T220WAH,1,20,$17.96,7,$125.73,TRUE,TRUE
P52,U6,ADP1715ARMZ,1,25,$2.03,7,$14.24,TRUE,TRUE
P53,U7,AD5142ABRUZ10,1,20,$3.40,7,$23.78,TRUE,TRUE
P54,Y1,OSC_DIFF_150M,1,20,$5.22,7,$36.54,TRUE,TRUE
P55,PCB,PCB,1,5,$500.00,3,"$1,500.00",FALSE,TRUE