1,U1 ,74LCX244MSA,1
2,U7 ,AD5142ABRUZ10,1
3,U6 ,ADP1715ARMZ,1
4,J1 ,ASP-134488-01,1
5,L1 L2 L3 ,BLM41PG600SN1,3
6,J28 ,CONN2X8_2MM,1
7,J19 ,CONN4_POWER,1
8,J25 ,CONN9_DB9,1
9,J26 ,CONN_4P_1720650004,1
10,J29 ,FAN3P_22-11-2032,1
11,M4 M5 ,HOLL2.7,2
12,M2 M6 M7 M8 ,HOLL3.175,4
13,J3 ,JUMP3,1
14,J2 ,JUMP3_2MM,1
15,J7 J8 J9 J11 J13 ,JUMPER,5
16,J4 J5 J10 J12 J14 J15 ,JUMPER2,6
17,U10 ,LTC2990CMS,1
18,U11 U13 ,M25P128VME6,2
19,U37 ,MAX3222EEUP,1
20,U3 U14 U16 U18 ,MAX8556ETE,4
21,U5 ,PTH08T220WAH,1
22,U15 ,PTH12000WAH,1
23,S1 ,RESET,1
24,J16 J17 J18 J20 J21 J22 J23 J24 ,SMA,8
25,U23 ,TPS3808G01DBVR,1
26,TP7 TP8 TP9 ,TP_A,3
27,J6 ,XC-JTAG14,1
28,U2 ,XC6SLX150-FGG484,1
29,U4 ,XC6SLX150-FGG676,1
30,C10 C15 C17 C19 C37 C80 C241 C261 C271 C278 ,CAP0402_0.1U,10
31,C4 C25 C26 C35 C36 C39 C40 C41 C45 C52 C53 C54 C57 C58 C59 C62 C66 C69 C71 C74 C75 C78 C79 C81 C89 C90 C91 C92 C97 C98 C101 C104 C105 C106 C107 ,CAP0402_0.47U,35
32,C18 C20 C21 C24 ,CAP0603_0.47U@16V,4
33,R5 ,RES0402_1.02K,1
34,R25 ,RES0402_1.4K,1
35,R12 R242 ,RES0402_10,2
36,R14 R106 R108 R114 R115 ,RES0402_100,5
37,R16 R17 R18 R19 R30 R31 R32 R33 R34 R35 R36 R37 R38 R39 R40 R41 R42 R43 R44 R45 R46 R49 R50 R51 R52 R53 R54 R55 R56 R57 R58 R59 R60 R61 R62 R63 R64 R67 R68 R69 R70 R71 R72 R73 R74 R75 R80 R81 R82 R85 R86 R88 R89 R90 R91 R92 R93 R94 R95 R96 R97 R98 R99 R100 R101 R102 R127 R140 ,RSA4_100,68
38,R76 ,RES0402_100K,1
39,C28 C29 C30 C31 C38 C55 C60 C67 C72 C76 C85 C88 C93 C96 C99 C115 ,CAP4532_100U,16
40,C12 C82 ,CAP7343_100U,2
41,R78 ,RES0402_10K,1
42,C7 C13 C14 C16 C42 C51 C65 C164 ,CAP0805_10U,8
43,C27 C260 ,CAP3216E_10U,2
44,Y1 ,OSC_DIFF_150M,1
45,R2 R4 R8 R22 R26 R77 R103 R112 R133 R279 ,RES0402_1K,10
46,R6 ,RES0402_1M,1
47,R7 R13 R243 ,RES0402_2.4K,3
48,C2 C3 C83 C84 C102 C108 C109 C110 ,CAP3216E_22U,8
49,R3 ,RES0402_3.9K,1
50,R83 R84 R105 R113 R134 R135 R136 R137 R138 R139 ,RES0402_330,10
51,C8 C11 ,CAP10_330U,2
52,C9 C64 ,CAP7343_330U,2
53,R23 ,RES0402_33K,1
54,C5 C6 ,CAP3216E_33U,2
55,R15 R27 R28 R79 R104 R107 R109 R110 R111 R116 R117 R118 R119 R128 R129 R273 R274 R275 R276 R277 R278 R280 ,RES0402_4.7K,22
56,C1 C22 C23 C32 C33 C43 C44 C46 C47 C48 C50 C56 C61 C68 C70 C73 C77 C86 C87 C94 C95 C100 C103 ,CAP0805_4.7U,23
57,R1 R132 ,RES0402_5.6K,2
58,R29 R161 ,RES2512_60mOhm,2
59,R24 ,RES0402_NC,1
60,FID1 FID2 FID3 FID5 FID6 FID7 ,FIDUCIAL15-30_NP,6
61,M1 M3 ,HOLL3.175_NP,2
62,D1 D3 D4 D11 D12 D13 D15 D16 D17 ,LED0603_RED,9